2 - TPs/TP1 - Prise en main de Quartus Conception de circuits en schématique/TP1_P2/simulation/qsim/Additionneur.msim.vcd
$comment
	File created using the following command:
		vcd file Additionneur.msim.vcd -direction
$end
$date
	Mon Mar 06 12:03:57 2023
$end
$version
	ModelSim Version 10.3d
$end
$timescale
	1ps
$end

$scope module Full_add_4bit_vlg_vec_tst $end
$var reg 9 ! SW [8:0] $end
$var wire 1 " LDER [3] $end
$var wire 1 # LDER [2] $end
$var wire 1 $ LDER [1] $end
$var wire 1 % LDER [0] $end
$var wire 1 & LEDR [4] $end
$var wire 1 ' sampler $end

$scope module i1 $end
$var wire 1 ( gnd $end
$var wire 1 ) vcc $end
$var wire 1 * unknown $end
$var tri1 1 + devclrn $end
$var tri1 1 , devpor $end
$var tri1 1 - devoe $end
$var wire 1 . ~QUARTUS_CREATED_GND~I_combout $end
$var wire 1 / SW[3]~input_o $end
$var wire 1 0 SW[2]~input_o $end
$var wire 1 1 SW[7]~input_o $end
$var wire 1 2 SW[6]~input_o $end
$var wire 1 3 SW[8]~input_o $end
$var wire 1 4 SW[1]~input_o $end
$var wire 1 5 SW[4]~input_o $end
$var wire 1 6 SW[0]~input_o $end
$var wire 1 7 SW[5]~input_o $end
$var wire 1 8 inst1|inst4~combout $end
$var wire 1 9 inst3|inst1~combout $end
$var wire 1 : inst2|inst1~combout $end
$var wire 1 ; inst1|inst1~combout $end
$var wire 1 < inst|inst1~combout $end
$var wire 1 = inst3|inst4~combout $end
$upscope $end
$upscope $end
$enddefinitions $end
#0
$dumpvars
b0 !
0%
0$
0#
0"
0&
x'
0(
1)
x*
1+
1,
1-
0.
0/
00
01
02
03
04
05
06
07
08
09
0:
0;
0<
0=
$end
#20000
b1000 !
1/
0'
19
1"
#40000
b1100 !
b100 !
10
0/
1'
09
1:
1#
0"
#60000
b1100 !
1/
0'
19
1"
#80000
b1110 !
b10001110 !
b10001010 !
b10000010 !
14
00
0/
11
1'
0:
1;
1$
0#
#100000
b10001010 !
1/
0'
1=
09
0"
1&
#120000
b10001110 !
b10000110 !
10
0/
1'
0=
19
1:
1#
1"
0&
#140000
b10001110 !
1/
0'
1=
09
0"
1&
#160000
b10001111 !
b11001111 !
b11001101 !
b1001101 !
b1001001 !
b1000001 !
16
04
00
0/
12
01
1'
0=
0;
1<
1%
0$
0&
#180000
b1001001 !
1/
0'
19
1"
#200000
b1001101 !
b1000101 !
10
0/
1'
0:
0#
#220000
b1001101 !
1/
0'
1=
09
0"
1&
#240000
b1001111 !
b11001111 !
b11001011 !
b11000011 !
14
00
0/
11
1'
0=
19
1:
1;
1$
1#
1"
0&
#260000
b11001011 !
1/
0'
1=
09
0"
1&
#280000
b11001111 !
b11000111 !
10
0/
1'
0:
0#
#300000
b11001111 !
1/
0'
19
1"
#320000
b11101111 !
b11101110 !
b10101110 !
b10101100 !
b101100 !
b101000 !
b100000 !
06
04
00
0/
17
02
01
1'
0=
09
0<
0%
0"
0&
#340000
b101000 !
1/
0'
19
1"
#360000
b101100 !
b100100 !
10
0/
1'
09
1:
1#
0"
#380000
b101100 !
1/
0'
19
1"
#400000
b101110 !
b10101110 !
b10101010 !
b10100010 !
14
00
0/
11
1'
18
0:
0;
0$
0#
1:
1#
#420000
b10101010 !
1/
0'
1=
09
0"
1&
#440000
b10101110 !
b10100110 !
10
0/
1'
0:
0#
#460000
b10101110 !
1/
0'
19
1"
#480000
b10101111 !
b11101111 !
b11101101 !
b1101101 !
b1101001 !
b1100001 !
16
04
00
0/
12
01
1'
08
0=
1;
1<
1%
1$
0&
1:
09
0"
1#
#500000
b1101001 !
1/
0'
19
1"
#520000
b1101101 !
b1100101 !
10
0/
1'
0:
0#
#540000
b1101101 !
1/
0'
1=
09
0"
1&
#560000
b1101111 !
b11101111 !
b11101011 !
b11100011 !
14
00
0/
11
1'
18
0=
19
1:
0;
0$
1#
1"
0&
1=
0:
09
0"
0#
1&
#580000
b11101011 !
1/
0'
19
1"
#600000
b11101111 !
b11100111 !
10
0/
1'
09
1:
1#
0"
#620000
b11101111 !
1/
0'
19
1"
#640000
b11111111 !
b11011111 !
b11011110 !
b10011110 !
b10011100 !
b11100 !
b11000 !
b10000 !
06
04
00
0/
15
07
02
01
1'
08
0=
09
0"
0&
0:
0#
#660000
b11000 !
1/
0'
19
1"
#680000
b11100 !
b10100 !
10
0/
1'
09
1:
1#
0"
#700000
b100010100 !
b100011100 !
1/
13
0'
0<
1;
19
1"
1$
0%
#720000
b100011110 !
b110011110 !
b110011010 !
b110010010 !
14
00
0/
11
1'
18
0:
0;
0$
0#
1:
1#
#740000
b110011010 !
1/
0'
1=
09
0"
1&
#760000
b110011110 !
b110010110 !
10
0/
1'
0:
0#
#780000
b110011110 !
1/
0'
19
1"
#800000
b110011111 !
b111011111 !
b111011101 !
b101011101 !
b101011001 !
b101010001 !
16
04
00
0/
12
01
1'
08
0=
1;
1<
1%
1$
0&
1:
09
0"
1#
#820000
b101011001 !
1/
0'
19
1"
#840000
b101011101 !
b101010101 !
10
0/
1'
0:
0#
#860000
b101011101 !
1/
0'
1=
09
0"
1&
#880000
b101011111 !
b111011111 !
b111011011 !
b111010011 !
14
00
0/
11
1'
18
0=
19
1:
0;
0$
1#
1"
0&
1=
0:
09
0"
0#
1&
#900000
b111011011 !
1/
0'
19
1"
#920000
b111011111 !
b111010111 !
10
0/
1'
09
1:
1#
0"
#940000
b111011111 !
1/
0'
19
1"
#960000
b111111111 !
b11111111 !
b11111110 !
b10111110 !
b10111100 !
b111100 !
b111000 !
b110000 !
06
04
00
0/
17
02
01
03
1'
08
1;
0=
09
0"
0&
1$
0:
0#
#980000
b111000 !
1/
0'
19
1"
