2 - TPs/TP2 - Description VHDL/TP2/simulation/qsim/A.msim.vcd
$comment
	File created using the following command:
		vcd file A.msim.vcd -direction
$end
$date
	Mon Mar 13 10:12:51 2023
$end
$version
	ModelSim Version 10.3d
$end
$timescale
	1ps
$end

$scope module full_add4bit_lib_vlg_vec_tst $end
$var reg 4 ! A [3:0] $end
$var reg 4 " B [3:0] $end
$var reg 1 # cin $end
$var wire 1 $ cout $end
$var wire 1 % s [3] $end
$var wire 1 & s [2] $end
$var wire 1 ' s [1] $end
$var wire 1 ( s [0] $end
$var wire 1 ) sampler $end

$scope module i1 $end
$var wire 1 * gnd $end
$var wire 1 + vcc $end
$var wire 1 , unknown $end
$var tri1 1 - devclrn $end
$var tri1 1 . devpor $end
$var tri1 1 / devoe $end
$var wire 1 0 ~QUARTUS_CREATED_GND~I_combout $end
$var wire 1 1 B[0]~input_o $end
$var wire 1 2 A[0]~input_o $end
$var wire 1 3 cin~input_o $end
$var wire 1 4 _~1_sumout $end
$var wire 1 5 A[1]~input_o $end
$var wire 1 6 B[1]~input_o $end
$var wire 1 7 _~2 $end
$var wire 1 8 _~3 $end
$var wire 1 9 _~5_sumout $end
$var wire 1 : A[2]~input_o $end
$var wire 1 ; B[2]~input_o $end
$var wire 1 < _~6 $end
$var wire 1 = _~7 $end
$var wire 1 > _~9_sumout $end
$var wire 1 ? B[3]~input_o $end
$var wire 1 @ A[3]~input_o $end
$var wire 1 A _~10 $end
$var wire 1 B _~11 $end
$var wire 1 C _~13_sumout $end
$var wire 1 D _~14 $end
$var wire 1 E _~15 $end
$var wire 1 F _~17_sumout $end
$upscope $end
$upscope $end
$enddefinitions $end
#0
$dumpvars
b0 !
b0 "
0#
0$
0(
0'
0&
0%
x)
0*
1+
x,
1-
1.
1/
00
01
02
03
04
05
06
07
08
09
0:
0;
0<
0=
0>
0?
0@
0A
0B
0C
0D
0E
0F
$end
#50000
b1 "
11
0)
14
1(
#60000
b10 !
15
1)
19
1'
#110000
b11 "
b10 "
01
16
0)
1=
09
04
0(
0'
1>
1&
#120000
b11 !
b1 !
12
05
1)
0=
19
14
1(
1'
0>
0&
#170000
b11 "
b11 !
15
11
0)
18
1=
04
09
0'
0(
19
1>
1&
1'
#220000
b111 !
b110 !
b100 !
02
05
1:
1)
1A
1<
0=
08
0>
09
14
0<
1(
0'
0&
1C
19
0A
1'
1%
1>
1&
0C
0%
#230000
b111 "
b101 "
b100 "
01
06
1;
0)
1B
0>
09
04
0(
0'
0&
1C
1%
#290000
b101 "
11
1)
14
1(
#300000
b110 !
15
0)
19
1'
#350000
b100 !
05
1)
09
0'
#360000
1#
b101 !
13
12
0)
18
19
1'
#370000
b111 "
b110 "
01
16
1)
1<
09
04
0(
0'
1>
1&
#420000
b111 !
15
0)
0<
1=
19
1'
#430000
b111 "
11
1)
14
1(
#490000
b1111 "
b11 !
b1011 "
b10 !
b1001 "
b0 !
b1000 "
02
05
0:
01
06
0;
1?
0)
1D
0B
0=
08
0C
0D
0%
1F
1C
0>
09
0'
0&
1%
1$
0F
0$
#500000
b1000 !
1@
1)
1E
0C
0%
1F
1$
#550000
b1001 "
11
0)
18
04
0(
19
1'
#580000
b1010 !
15
1)
1<
09
0'
1>
1&
#630000
b1011 "
b1010 "
01
16
0)
0<
1=
08
19
14
1(
1'
09
0'
#650000
b1000 !
05
1)
0=
19
1'
0>
0&
#660000
b1001 !
12
0)
18
04
1<
0(
09
0'
1>
1&
#680000
b1011 "
11
1)
14
1(
#700000
0#
03
0)
04
0(
#720000
b1011 !
15
1)
0<
1=
19
1'
#740000
b1111 "
b1101 "
b1100 "
01
06
1;
0)
1A
1<
0=
08
0>
09
14
0<
1(
0'
0&
1C
19
0A
1'
1%
1>
1&
0C
0%
#760000
b1111 !
b1110 !
b1100 !
02
05
1:
1)
1B
0>
09
04
0(
0'
0&
1C
1%
#810000
b1101 "
11
0)
14
1(
#830000
b1110 !
15
1)
19
1'
#870000
b1111 "
b1110 "
01
16
0)
1=
09
04
0(
0'
1>
1&
#910000
b1111 !
b1101 !
12
05
1)
0=
19
14
1(
1'
0>
0&
#940000
b1111 "
11
0)
18
04
1<
0(
09
0'
1>
1&
#960000
b1111 !
15
1)
0<
1=
19
1'
