2 - TPs/TP3 - Additionneur décimal et bascules/TP3_partie2/simulation/qsim/Bascule.msim.vcd
$comment
	File created using the following command:
		vcd file Bascule.msim.vcd -direction
$end
$date
	Mon Mar 27 17:57:42 2023
$end
$version
	ModelSim Version 10.3d
$end
$timescale
	1ps
$end

$scope module Block3_vlg_vec_tst $end
$var reg 1 ! clc $end
$var reg 1 " J $end
$var reg 1 # K $end
$var reg 1 $ rest2 $end
$var reg 1 % set2 $end
$var wire 1 & Q2 $end
$var wire 1 ' sampler $end

$scope module i1 $end
$var wire 1 ( gnd $end
$var wire 1 ) vcc $end
$var wire 1 * unknown $end
$var tri1 1 + devclrn $end
$var tri1 1 , devpor $end
$var tri1 1 - devoe $end
$var wire 1 . ~QUARTUS_CREATED_GND~I_combout $end
$var wire 1 / rest2~input_o $end
$var wire 1 0 set2~input_o $end
$var wire 1 1 inst1~1_combout $end
$var wire 1 2 clc~input_o $end
$var wire 1 3 J~input_o $end
$var wire 1 4 K~input_o $end
$var wire 1 5 inst1~3_combout $end
$var wire 1 6 inst1~0_combout $end
$var wire 1 7 inst1~_emulated_q $end
$var wire 1 8 inst1~2_combout $end
$upscope $end
$upscope $end
$enddefinitions $end
#0
$dumpvars
0!
0"
0#
0$
0%
0&
x'
0(
1)
x*
1+
1,
1-
0.
0/
00
01
02
03
04
05
16
07
08
$end
#20000
1%
1$
10
1/
0'
06
#25000
1!
1'
12
#50000
0!
0'
02
#75000
1!
1'
12
#100000
0!
0'
02
#125000
1!
1'
12
#150000
0!
0'
02
#175000
1!
1'
12
#190000
1#
14
0'
#200000
0!
1'
02
#225000
1!
0'
12
#250000
0!
1'
02
#275000
1!
0'
12
#300000
0!
1'
02
#325000
1!
0'
12
#350000
0!
1'
02
#375000
1!
0'
12
#400000
0!
1'
02
#425000
1!
0'
12
#450000
0!
1'
02
#460000
1"
0#
13
04
0'
15
#475000
1!
1'
12
17
18
1&
#500000
0!
0'
02
#525000
1!
1'
12
#550000
0!
0'
02
#575000
1!
1'
12
#600000
0!
0'
02
#625000
1!
1'
12
#650000
0!
0'
02
#675000
1!
1'
12
#700000
0!
0'
02
#725000
1!
1'
12
#740000
1#
14
0'
05
#750000
0!
1'
02
#775000
1!
0'
12
07
08
0&
15
#800000
0!
1'
02
#825000
1!
0'
12
17
18
1&
05
#850000
0!
1'
02
#875000
1!
0'
12
07
08
0&
15
#900000
0!
1'
02
#925000
1!
0'
12
17
18
1&
05
#950000
0!
1'
02
#975000
1!
0'
12
07
08
0&
15
